<?xml version="1.0" encoding="utf-8"?>
<!-- Generator: Adobe Illustrator 24.0.2, SVG Export Plug-In . SVG Version: 6.00 Build 0)  -->
<svg version="1.1" id="Layer_1" xmlns="http://www.w3.org/2000/svg" xmlns:xlink="http://www.w3.org/1999/xlink" x="0px" y="0px"
	 viewBox="0 0 24.89 24.89" style="enable-background:new 0 0 24.89 24.89;" xml:space="preserve">
<style type="text/css">
	.st0{fill:#1B1B1B;}
</style>
<path class="st0" d="M7,24.89h10.89c3.87,0,7-3.13,7-7V7c0-3.87-3.13-7-7-7H7C3.13,0,0,3.13,0,7v10.89C0,21.75,3.13,24.89,7,24.89z"
	/>
</svg>
