<?xml version="1.0" encoding="utf-8"?>
<!-- Generator: Adobe Illustrator 24.0.2, SVG Export Plug-In . SVG Version: 6.00 Build 0)  -->
<svg version="1.1" id="Layer_1" xmlns="http://www.w3.org/2000/svg" xmlns:xlink="http://www.w3.org/1999/xlink" x="0px" y="0px"
	 viewBox="0 0 41.23 51.43" style="enable-background:new 0 0 41.23 51.43;" xml:space="preserve">
<style type="text/css">
	.st0{fill:#343434;stroke:#FFFFFF;stroke-width:1.3887;stroke-linecap:round;stroke-linejoin:round;stroke-miterlimit:10;}
</style>
<path class="st0" d="M20.62,0.69L0.69,8.13v15.94c0,6.57,2.54,12.72,6.81,16.5l13.11,10.16"/>
<path class="st0" d="M20.62,0.69l19.92,7.44v15.94c0,6.57-2.54,12.72-6.81,16.5L20.62,50.73"/>
<polyline class="st0" points="11.23,25.38 18.13,32.29 32.09,18.32 "/>
</svg>
