<?xml version="1.0" encoding="utf-8"?>
<!-- Generator: Adobe Illustrator 23.0.3, SVG Export Plug-In . SVG Version: 6.00 Build 0)  -->
<svg version="1.1" id="Layer_1" xmlns="http://www.w3.org/2000/svg" xmlns:xlink="http://www.w3.org/1999/xlink" x="0px" y="0px"
	 viewBox="0 0 26.35 26.35" style="enable-background:new 0 0 26.35 26.35;" xml:space="preserve">
<style type="text/css">
	.st0{fill:#4E4E4E;}
</style>
<path class="st0" d="M13.17,0C5.9,0,0,5.9,0,13.17s5.9,13.17,13.17,13.17s13.17-5.9,13.17-13.17S20.45,0,13.17,0z M19.19,10.27
	c0.01,0.13,0.01,0.26,0.01,0.39c0,4-3.04,8.6-8.6,8.6h0h0c-1.71,0-3.3-0.5-4.63-1.36c0.24,0.03,0.48,0.04,0.72,0.04
	c1.42,0,2.72-0.48,3.76-1.29c-1.32-0.02-2.44-0.9-2.82-2.1c0.18,0.04,0.37,0.05,0.57,0.05c0.28,0,0.54-0.04,0.8-0.11
	c-1.38-0.28-2.43-1.5-2.43-2.96c0-0.01,0-0.03,0-0.04c0.41,0.23,0.87,0.36,1.37,0.38c-0.81-0.54-1.35-1.47-1.35-2.52
	c0-0.55,0.15-1.07,0.41-1.52c1.49,1.83,3.72,3.03,6.23,3.16c-0.05-0.22-0.08-0.45-0.08-0.69c0-1.67,1.35-3.02,3.02-3.02
	c0.87,0,1.66,0.37,2.21,0.96c0.69-0.14,1.34-0.39,1.92-0.73c-0.23,0.71-0.71,1.3-1.33,1.67c0.61-0.07,1.19-0.24,1.74-0.48
	C20.29,9.31,19.78,9.84,19.19,10.27z"/>
</svg>
