<?xml version="1.0" encoding="utf-8"?>
<!-- Generator: Adobe Illustrator 23.0.3, SVG Export Plug-In . SVG Version: 6.00 Build 0)  -->
<svg version="1.1" id="Layer_1" xmlns="http://www.w3.org/2000/svg" xmlns:xlink="http://www.w3.org/1999/xlink" x="0px" y="0px"
	 viewBox="0 0 19.17 22" style="enable-background:new 0 0 19.17 22;" xml:space="preserve">
<style type="text/css">
	.st0{fill:none;stroke:#010101;stroke-linecap:round;stroke-linejoin:round;stroke-miterlimit:10;}
</style>
<g>
	<circle class="st0" cx="9.58" cy="6.91" r="6.41"/>
	<path class="st0" d="M0.5,20.1c1.62-3.39,5.08-5.73,9.08-5.73c4,0,7.46,2.34,9.08,5.72"/>
	<path class="st0" d="M0.5,20.1c1.62,0.83,5.08,1.4,9.08,1.4c4,0,7.46-0.57,9.08-1.4"/>
</g>
</svg>
